*** Life<Cell> 13x13 ***

Generation = 0, Population = 88.
0-0-00-00-0-0
00----00-0000
000--0--0----
0000--00--00-
---0-000-0-00
000-00000----
---0-00--0---
0-0-0----000-
00--0-0-0-0-0
0--0000-0-0-0
0-0000------0
00-0--000-000
-00--0-----0-

Generation = 65, Population = 10.
.............
.............
.............
.............
.............
.............
.-..-.....*..
.....***.*.*.
..........*.*
...........**
.............
.............
.............

Generation = 130, Population = 10.
.............
.............
.............
.............
.............
.............
.-..-.*...*..
......*..*.*.
......*...*.*
...........**
.............
.............
.............

Generation = 195, Population = 10.
.............
.............
.............
.............
.............
.............
.-..-.....*..
.....***.*.*.
..........*.*
...........**
.............
.............
.............

Generation = 260, Population = 10.
.............
.............
.............
.............
.............
.............
.-..-.*...*..
......*..*.*.
......*...*.*
...........**
.............
.............
.............

Generation = 325, Population = 10.
.............
.............
.............
.............
.............
.............
.-..-.....*..
.....***.*.*.
..........*.*
...........**
.............
.............
.............

Generation = 390, Population = 10.
.............
.............
.............
.............
.............
.............
.-..-.*...*..
......*..*.*.
......*...*.*
...........**
.............
.............
.............

Generation = 455, Population = 10.
.............
.............
.............
.............
.............
.............
.-..-.....*..
.....***.*.*.
..........*.*
...........**
.............
.............
.............

Generation = 520, Population = 10.
.............
.............
.............
.............
.............
.............
.-..-.*...*..
......*..*.*.
......*...*.*
...........**
.............
.............
.............

Generation = 585, Population = 10.
.............
.............
.............
.............
.............
.............
.-..-.....*..
.....***.*.*.
..........*.*
...........**
.............
.............
.............

*** Life<Cell> 13x13 ***

Generation = 0, Population = 87.
0-0--00--0000
--0000---0000
00--00-00000-
0---00-000000
-000-0---0---
0-----0-0--00
---0---000000
00-0-00----00
---0---00-0--
0---0-00---00
00-00--0---0-
-0000---0-0-0
0-000---0---0

Generation = 65, Population = 10.
-....-......-
.............
.............
.............
.**....-.....
.**..........
-............
.............
........*....
.......*.*...
.......*.*...
-.......*....
............-

Generation = 130, Population = 10.
-....-......-
.............
.............
.............
.**....-.....
.**..........
-............
.............
........*....
.......*.*...
.......*.*...
-.......*....
............-

Generation = 195, Population = 10.
-....-......-
.............
.............
.............
.**....-.....
.**..........
-............
.............
........*....
.......*.*...
.......*.*...
-.......*....
............-

Generation = 260, Population = 10.
-....-......-
.............
.............
.............
.**....-.....
.**..........
-............
.............
........*....
.......*.*...
.......*.*...
-.......*....
............-

Generation = 325, Population = 10.
-....-......-
.............
.............
.............
.**....-.....
.**..........
-............
.............
........*....
.......*.*...
.......*.*...
-.......*....
............-

Generation = 390, Population = 10.
-....-......-
.............
.............
.............
.**....-.....
.**..........
-............
.............
........*....
.......*.*...
.......*.*...
-.......*....
............-

Generation = 455, Population = 10.
-....-......-
.............
.............
.............
.**....-.....
.**..........
-............
.............
........*....
.......*.*...
.......*.*...
-.......*....
............-

Generation = 520, Population = 10.
-....-......-
.............
.............
.............
.**....-.....
.**..........
-............
.............
........*....
.......*.*...
.......*.*...
-.......*....
............-

Generation = 585, Population = 10.
-....-......-
.............
.............
.............
.**....-.....
.**..........
-............
.............
........*....
.......*.*...
.......*.*...
-.......*....
............-

*** Life<Cell> 13x13 ***

Generation = 0, Population = 81.
00--0--00000-
---0--00-----
---0--0000-00
00--000-00--0
-0-00-0---0-0
0-0-00--0---0
-00--00-0-0-0
0000-0----00-
-0-00-------0
----00-00-0--
----00000--00
000------0000
-0-0-00-0--0-

Generation = 65, Population = 4.
.............
......**.....
......**.....
.............
.............
.............
...........-.
.............
..........-..
.............
-............
............-
.............

Generation = 130, Population = 4.
.............
......**.....
......**.....
.............
.............
.............
...........-.
.............
..........-..
.............
-............
............-
.............

Generation = 195, Population = 4.
.............
......**.....
......**.....
.............
.............
.............
...........-.
.............
..........-..
.............
-............
............-
.............

Generation = 260, Population = 4.
.............
......**.....
......**.....
.............
.............
.............
...........-.
.............
..........-..
.............
-............
............-
.............

Generation = 325, Population = 4.
.............
......**.....
......**.....
.............
.............
.............
...........-.
.............
..........-..
.............
-............
............-
.............

Generation = 390, Population = 4.
.............
......**.....
......**.....
.............
.............
.............
...........-.
.............
..........-..
.............
-............
............-
.............

Generation = 455, Population = 4.
.............
......**.....
......**.....
.............
.............
.............
...........-.
.............
..........-..
.............
-............
............-
.............

Generation = 520, Population = 4.
.............
......**.....
......**.....
.............
.............
.............
...........-.
.............
..........-..
.............
-............
............-
.............

Generation = 585, Population = 4.
.............
......**.....
......**.....
.............
.............
.............
...........-.
.............
..........-..
.............
-............
............-
.............

*** Life<Cell> 13x13 ***

Generation = 0, Population = 86.
--0--0000---0
-000-0000000-
000-0--0-0--0
00--0-0--00-0
000--00--0-00
000--0-0-00-0
--0000--00-00
-0---0--0-0-0
-00----00-0--
00-0--0-----0
0-0000-----0-
0-00--0-000--
0----0-0---0-

Generation = 65, Population = 3.
.-........-..
.............
.........-...
.............
.............
.............
.......*.....
.......*.....
.......*.....
.............
.............
.............
............-

Generation = 130, Population = 3.
.-........-..
.............
.........-...
.............
.............
.............
.............
......***....
.............
.............
.............
.............
............-

Generation = 195, Population = 3.
.-........-..
.............
.........-...
.............
.............
.............
.......*.....
.......*.....
.......*.....
.............
.............
.............
............-

Generation = 260, Population = 3.
.-........-..
.............
.........-...
.............
.............
.............
.............
......***....
.............
.............
.............
.............
............-

Generation = 325, Population = 3.
.-........-..
.............
.........-...
.............
.............
.............
.......*.....
.......*.....
.......*.....
.............
.............
.............
............-

Generation = 390, Population = 3.
.-........-..
.............
.........-...
.............
.............
.............
.............
......***....
.............
.............
.............
.............
............-

Generation = 455, Population = 3.
.-........-..
.............
.........-...
.............
.............
.............
.......*.....
.......*.....
.......*.....
.............
.............
.............
............-

Generation = 520, Population = 3.
.-........-..
.............
.........-...
.............
.............
.............
.............
......***....
.............
.............
.............
.............
............-

Generation = 585, Population = 3.
.-........-..
.............
.........-...
.............
.............
.............
.......*.....
.......*.....
.......*.....
.............
.............
.............
............-

*** Life<Cell> 13x13 ***

Generation = 0, Population = 87.
--00-0-0--00-
--0-000-000-0
0-0-0--00-00-
0-00-0-0----0
-00-0000---00
-0000----0---
00--0000--000
--0--0--000-0
00-0--00-0--0
0---00-0-0-00
---0--000-0--
--------0--00
00-0-000000-0

Generation = 65, Population = 6.
......*...-..
.....*.*.....
.....*.*.....
......*......
....-........
-............
....-........
.............
.............
.......-.....
.............
...-.........
.............

Generation = 130, Population = 6.
......*...-..
.....*.*.....
.....*.*.....
......*......
....-........
-............
....-........
.............
.............
.......-.....
.............
...-.........
.............

Generation = 195, Population = 6.
......*...-..
.....*.*.....
.....*.*.....
......*......
....-........
-............
....-........
.............
.............
.......-.....
.............
...-.........
.............

Generation = 260, Population = 6.
......*...-..
.....*.*.....
.....*.*.....
......*......
....-........
-............
....-........
.............
.............
.......-.....
.............
...-.........
.............

Generation = 325, Population = 6.
......*...-..
.....*.*.....
.....*.*.....
......*......
....-........
-............
....-........
.............
.............
.......-.....
.............
...-.........
.............

Generation = 390, Population = 6.
......*...-..
.....*.*.....
.....*.*.....
......*......
....-........
-............
....-........
.............
.............
.......-.....
.............
...-.........
.............

Generation = 455, Population = 6.
......*...-..
.....*.*.....
.....*.*.....
......*......
....-........
-............
....-........
.............
.............
.......-.....
.............
...-.........
.............

Generation = 520, Population = 6.
......*...-..
.....*.*.....
.....*.*.....
......*......
....-........
-............
....-........
.............
.............
.......-.....
.............
...-.........
.............

Generation = 585, Population = 6.
......*...-..
.....*.*.....
.....*.*.....
......*......
....-........
-............
....-........
.............
.............
.......-.....
.............
...-.........
.............

*** Life<Cell> 13x13 ***

Generation = 0, Population = 89.
-0--0000----0
-0--0--00-0--
00-0----00--0
-0-000-0000--
-----00-00--0
000---00--0-0
0--00-0000000
---0-00000---
--00--0--00--
000--00--000-
000--0--00-0-
0--00000--000
00-00-00-0---

Generation = 65, Population = 22.
..........*..
..*......*.*.
.*.*.....*.*.
.*.*......*..
..*..........
........*....
.......*.*...
.......*.*...
..**....*....
..**.........
.............
.............
.............

Generation = 130, Population = 22.
..........*..
..*......*.*.
.*.*.....*.*.
.*.*......*..
..*..........
........*....
.......*.*...
.......*.*...
..**....*....
..**.........
.............
.............
.............

Generation = 195, Population = 22.
..........*..
..*......*.*.
.*.*.....*.*.
.*.*......*..
..*..........
........*....
.......*.*...
.......*.*...
..**....*....
..**.........
.............
.............
.............

Generation = 260, Population = 22.
..........*..
..*......*.*.
.*.*.....*.*.
.*.*......*..
..*..........
........*....
.......*.*...
.......*.*...
..**....*....
..**.........
.............
.............
.............

Generation = 325, Population = 22.
..........*..
..*......*.*.
.*.*.....*.*.
.*.*......*..
..*..........
........*....
.......*.*...
.......*.*...
..**....*....
..**.........
.............
.............
.............

Generation = 390, Population = 22.
..........*..
..*......*.*.
.*.*.....*.*.
.*.*......*..
..*..........
........*....
.......*.*...
.......*.*...
..**....*....
..**.........
.............
.............
.............

Generation = 455, Population = 22.
..........*..
..*......*.*.
.*.*.....*.*.
.*.*......*..
..*..........
........*....
.......*.*...
.......*.*...
..**....*....
..**.........
.............
.............
.............

Generation = 520, Population = 22.
..........*..
..*......*.*.
.*.*.....*.*.
.*.*......*..
..*..........
........*....
.......*.*...
.......*.*...
..**....*....
..**.........
.............
.............
.............

Generation = 585, Population = 22.
..........*..
..*......*.*.
.*.*.....*.*.
.*.*......*..
..*..........
........*....
.......*.*...
.......*.*...
..**....*....
..**.........
.............
.............
.............

*** Life<Cell> 13x13 ***

Generation = 0, Population = 84.
--00---0-00-0
--0-0--00-0--
00-0000--0000
0000---0000--
-0--0-000-0--
0-00---000-00
00-00--000---
--0--000-0--0
-0-0--0000--0
0--0-00000--0
--00---0000--
----0-00-----
---0000------

Generation = 65, Population = 25.
-....***.....
.....*...*...
.......*.*...
*........*...
*.*..***..-..
*.*...**.....
.*...........
.............
.............
....*........
...*.*......0
...**.......-
.......-..--.

Generation = 130, Population = 14.
-.**.........
..**.........
.............
.........**..
.........**..
.............
.............
.............
.............
....*........
...*.*......-
...**.......0
.......-..--.

Generation = 195, Population = 14.
-.**.........
..**.........
.............
.........**..
.........**..
.............
.............
.............
.............
....*........
...*.*......0
...**.......-
.......-..--.

Generation = 260, Population = 14.
-.**.........
..**.........
.............
.........**..
.........**..
.............
.............
.............
.............
....*........
...*.*......-
...**.......0
.......-..--.

Generation = 325, Population = 14.
-.**.........
..**.........
.............
.........**..
.........**..
.............
.............
.............
.............
....*........
...*.*......0
...**.......-
.......-..--.

Generation = 390, Population = 14.
-.**.........
..**.........
.............
.........**..
.........**..
.............
.............
.............
.............
....*........
...*.*......-
...**.......0
.......-..--.

Generation = 455, Population = 14.
-.**.........
..**.........
.............
.........**..
.........**..
.............
.............
.............
.............
....*........
...*.*......0
...**.......-
.......-..--.

Generation = 520, Population = 14.
-.**.........
..**.........
.............
.........**..
.........**..
.............
.............
.............
.............
....*........
...*.*......-
...**.......0
.......-..--.

Generation = 585, Population = 14.
-.**.........
..**.........
.............
.........**..
.........**..
.............
.............
.............
.............
....*........
...*.*......0
...**.......-
.......-..--.

*** Life<Cell> 13x13 ***

Generation = 0, Population = 84.
-000--00000-0
--------0-000
0-0-0--00--00
---0000-00-0-
-0000-00--0--
-0--00---0-00
0-0-0-0---0--
----0-0-0-000
0000-000--000
00-0-000---0-
--00--00-----
000---0000---
--0-0-0-0--0-

Generation = 65, Population = 2.
.-.-......-..
-............
0....-.......
.-..-........
.-........1..
..........-..
.............
.............
.............
.............
.............
...........-.
.............

Generation = 130, Population = 2.
.-.-......-..
1............
-....-.......
.-..-........
.-........-..
..........1..
.............
.............
.............
.............
.............
...........-.
.............

Generation = 195, Population = 2.
.-.-......-..
-............
0....-.......
.-..-........
.-........1..
..........-..
.............
.............
.............
.............
.............
...........-.
.............

Generation = 260, Population = 2.
.-.-......-..
1............
-....-.......
.-..-........
.-........-..
..........1..
.............
.............
.............
.............
.............
...........-.
.............

Generation = 325, Population = 2.
.-.-......-..
-............
0....-.......
.-..-........
.-........1..
..........-..
.............
.............
.............
.............
.............
...........-.
.............

Generation = 390, Population = 2.
.-.-......-..
1............
-....-.......
.-..-........
.-........-..
..........1..
.............
.............
.............
.............
.............
...........-.
.............

Generation = 455, Population = 2.
.-.-......-..
-............
0....-.......
.-..-........
.-........1..
..........-..
.............
.............
.............
.............
.............
...........-.
.............

Generation = 520, Population = 2.
.-.-......-..
1............
-....-.......
.-..-........
.-........-..
..........1..
.............
.............
.............
.............
.............
...........-.
.............

Generation = 585, Population = 2.
.-.-......-..
-............
0....-.......
.-..-........
.-........1..
..........-..
.............
.............
.............
.............
.............
...........-.
.............

*** Life<Cell> 13x13 ***

Generation = 0, Population = 84.
-0-0-0-0---00
-000000---000
--0----000--0
0----0--00---
00-0-0-0--000
-000-0000000-
-0-00000000--
-0-----0-000-
---000--0-00-
-00---00-----
--00--0-0--0-
--0-0-0--0---
-0-000--00000

Generation = 65, Population = 7.
............-
..*..........
.*.*.........
*..*.........
.**..........
.............
.............
.-...........
.............
-.-..........
.............
.............
.-...........

Generation = 130, Population = 7.
............-
..*..........
.*.*.........
*..*.........
.**..........
.............
.............
.-...........
.............
-.-..........
.............
.............
.-...........

Generation = 195, Population = 7.
............-
..*..........
.*.*.........
*..*.........
.**..........
.............
.............
.-...........
.............
-.-..........
.............
.............
.-...........

Generation = 260, Population = 7.
............-
..*..........
.*.*.........
*..*.........
.**..........
.............
.............
.-...........
.............
-.-..........
.............
.............
.-...........

Generation = 325, Population = 7.
............-
..*..........
.*.*.........
*..*.........
.**..........
.............
.............
.-...........
.............
-.-..........
.............
.............
.-...........

Generation = 390, Population = 7.
............-
..*..........
.*.*.........
*..*.........
.**..........
.............
.............
.-...........
.............
-.-..........
.............
.............
.-...........

Generation = 455, Population = 7.
............-
..*..........
.*.*.........
*..*.........
.**..........
.............
.............
.-...........
.............
-.-..........
.............
.............
.-...........

Generation = 520, Population = 7.
............-
..*..........
.*.*.........
*..*.........
.**..........
.............
.............
.-...........
.............
-.-..........
.............
.............
.-...........

Generation = 585, Population = 7.
............-
..*..........
.*.*.........
*..*.........
.**..........
.............
.............
.-...........
.............
-.-..........
.............
.............
.-...........

*** Life<Cell> 13x13 ***

Generation = 0, Population = 87.
0-00-----0--0
0-00-0-000--0
00-000-0-0-0-
0-00-0-000000
0-00--0-000-0
0-00--0000--0
---000--0-00-
0--0------0--
--00--0-0-0--
---00--0--0-0
--0-000-00--0
--0--00000--0
0--0-0-00--00

Generation = 65, Population = 6.
......-......
.............
.............
.............
.............
.............
.............
.............
.............
.*.......-.-.
*.*.........-
*.*..........
.*......-....

Generation = 130, Population = 6.
......-......
.............
.............
.............
.............
.............
.............
.............
.............
.*.......-.-.
*.*.........-
*.*..........
.*......-....

Generation = 195, Population = 6.
......-......
.............
.............
.............
.............
.............
.............
.............
.............
.*.......-.-.
*.*.........-
*.*..........
.*......-....

Generation = 260, Population = 6.
......-......
.............
.............
.............
.............
.............
.............
.............
.............
.*.......-.-.
*.*.........-
*.*..........
.*......-....

Generation = 325, Population = 6.
......-......
.............
.............
.............
.............
.............
.............
.............
.............
.*.......-.-.
*.*.........-
*.*..........
.*......-....

Generation = 390, Population = 6.
......-......
.............
.............
.............
.............
.............
.............
.............
.............
.*.......-.-.
*.*.........-
*.*..........
.*......-....

Generation = 455, Population = 6.
......-......
.............
.............
.............
.............
.............
.............
.............
.............
.*.......-.-.
*.*.........-
*.*..........
.*......-....

Generation = 520, Population = 6.
......-......
.............
.............
.............
.............
.............
.............
.............
.............
.*.......-.-.
*.*.........-
*.*..........
.*......-....

Generation = 585, Population = 6.
......-......
.............
.............
.............
.............
.............
.............
.............
.............
.*.......-.-.
*.*.........-
*.*..........
.*......-....